4552820	21210452	EXACT	CONFIRMED_AUTO	1.0000	3475		2019-01-28 17:05:38		https://www.bedbathandbeyond.ca/store/product/foxmind-games-equilibrio/5144430?skuId=64701042	https://www.amazon.ca/gp/offer-listing/B000PHQLVK/ref=dp_olp_new_mbc?ie=UTF8&condition=new	BBCA	Amazon.ca
4606078	21323618	EXACT	CONFIRMED_AUTO	1.0000	3475		2019-01-28 21:30:11		https://www.bedbathandbeyond.ca/store/product/educa-soft-drink-cans-2000-piece-jigsaw-puzzle/5019516?skuId=63609103	https://www.amazon.com/gp/offer-listing/B000J00XJY/ref=dp_olp_all_mbc?ie=UTF8&condition=all	BBCA	Amazon.com
4843740	6018097	EXACT	CONFIRMED_AUTO	1.0000	3475		2019-01-17 23:04:26		https://www.bedbathandbeyond.ca/store/product/dena-trade-home-camden-fingertip-towel/1046447845?skuId=46447845	https://www.amazon.ca/gp/offer-listing/B01HH1Y6Z4/ref=dp_olp_new_mbc?ie=UTF8&condition=new	BBCA	Amazon.ca
4627045	21210932	EXACT	CONFIRMED_AUTO	1.0000	3475		2019-01-28 17:05:15		https://www.bedbathandbeyond.ca/store/product/4d-master-reg-funny-anatomy-balloon-dog/5019529?skuId=63609400	https://www.amazon.ca/gp/offer-listing/B06XXN65KB/ref=dp_olp_new_mbc?ie=UTF8&condition=new	BBCA	Amazon.ca
4627126	21283698	EXACT	CONFIRMED_AUTO	1.0000	3475		2019-01-28 21:30:11		https://www.bedbathandbeyond.ca/store/product/4d-master-reg-4d-vision-dolphin-anatomy-model/5019602?skuId=63609271	https://www.amazon.com/gp/offer-listing/B0035YJVUI/ref=dp_olp_new_mbc?ie=UTF8&condition=new	BBCA	Amazon.com
4627126	21210000	EXACT	CONFIRMED_AUTO	1.0000	3475		2019-01-28 17:05:15		https://www.bedbathandbeyond.ca/store/product/4d-master-reg-4d-vision-dolphin-anatomy-model/5019602?skuId=63609271	https://www.amazon.ca/gp/offer-listing/B0035YJVUI/ref=dp_olp_new_mbc?ie=UTF8&condition=new	BBCA	Amazon.ca
4824798	21390575	EXACT	CONFIRMED_AUTO	1.0000	3475		2019-01-28 21:33:11		https://www.bedbathandbeyond.ca/store/product/waba-fun-465-piece-morphun-advanced-12-robots-construction-set/5145412?skuId=64704869	https://www.amazon.com/gp/offer-listing/B01LZDR9WC/ref=dp_olp_new_mbc?ie=UTF8&condition=new	BBCA	Amazon.com
4606107	21258424	EXACT	CONFIRMED_AUTO	1.0000	3475		2019-01-28 21:32:29		https://www.bedbathandbeyond.ca/store/product/be-good-company-shuttles-the-moving-maze-strategy-game/5052580?skuId=64493503	https://www.amazon.com/gp/offer-listing/B01125BOVU/ref=dp_olp_new_mbc?ie=UTF8&condition=new	BBCA	Amazon.com
4606107	21227106	EXACT	CONFIRMED_AUTO	1.0000	3475		2019-01-28 17:05:30		https://www.bedbathandbeyond.ca/store/product/be-good-company-shuttles-the-moving-maze-strategy-game/5052580?skuId=64493503	https://www.amazon.ca/gp/offer-listing/B01125BOVU/ref=dp_olp_new_mbc?ie=UTF8&condition=new	BBCA	Amazon.ca
4751285	19750596	EXACT	CONFIRMED_AUTO	1.0000	3475		2019-01-28 13:57:49		https://www.bedbathandbeyond.ca/store/product/novis-vita-juicer/3290866?skuId=46548016	https://www.amazon.ca/gp/offer-listing/B014P21EPI/ref=dp_olp_new?ie=UTF8&condition=new	BBCA	Amazon.ca
4751285	8805809	EXACT	CONFIRMED_AUTO	1.0000	3475		2019-01-17 22:14:38		https://www.bedbathandbeyond.ca/store/product/novis-vita-juicer/3290866?skuId=46548016	https://www.amazon.com/gp/offer-listing/B014P21EPI/ref=dp_olp_new_mbc?ie=UTF8&condition=new	BBCA	Amazon.com
4606904	21367917	EXACT	CONFIRMED_AUTO	1.0000	3475		2019-01-28 21:30:10		https://www.bedbathandbeyond.ca/store/product/house-of-marbles-poker-set/5019504?skuId=63609042	https://www.amazon.com/gp/offer-listing/B01N7ZENIM/ref=dp_olp_new_mbc?ie=UTF8&condition=new	BBCA	Amazon.com
4733040	21365143	EXACT	CONFIRMED_AUTO	1.0000	3475		2019-01-28 21:16:06		https://www.bedbathandbeyond.ca/store/product/salt-quilted-4-piece-plate-case-set-in-white/1043668601?skuId=43668601	https://www.amazon.com/dp/B015ZTXW0A?psc=1	BBCA	Amazon.com
4627627	5808624	EXACT	CONFIRMED_AUTO	1.0000	3475		2019-01-17 23:08:45		https://www.bedbathandbeyond.ca/store/product/nokia-body-bmi-wifi-scale/3338910?skuId=62590440	https://www.amazon.ca/gp/offer-listing/B0728K4371/ref=dp_olp_new_mbc?ie=UTF8&condition=new	BBCA	Amazon.ca
4741830	6973855	EXACT	CONFIRMED_AUTO	1.0000	3475		2019-01-17 23:07:05		https://www.bedbathandbeyond.ca/store/product/clarisonic-reg-mia-fit/3324996?skuId=61150393	https://www.amazon.ca/gp/offer-listing/B01C8277TE/ref=dp_olp_new?ie=UTF8&condition=new	BBCA	Amazon.ca
5002322	21394733	EXACT	CONFIRMED_AUTO	1.0000	3475		2019-01-31 01:07:15		https://www.bedbathandbeyond.ca/store/product/omada-reg-adamo-square-dinner-plates-in-blue-set-of-4/1062607049?skuId=62607049	https://www.amazon.com/gp/offer-listing/B00B4PIZV6/ref=dp_olp_new_mbc?ie=UTF8&condition=new	BBCA	Amazon.com
5002322	18132481	EXACT	CONFIRMED_AUTO	1.0000	3475		2019-01-24 15:30:21		https://www.bedbathandbeyond.ca/store/product/omada-reg-adamo-square-dinner-plates-in-blue-set-of-4/1062607049?skuId=62607049	https://www.amazon.ca/gp/offer-listing/B00B4PIZV6/ref=dp_olp_new?ie=UTF8&condition=new	BBCA	Amazon.ca
4669736	21227156	EXACT	CONFIRMED_AUTO	1.0000	3475		2019-01-28 17:04:48		https://www.bedbathandbeyond.ca/store/product/omada-reg-adamo-paper-cup-holder-in-white/1062605861?skuId=62605861	https://www.amazon.ca/gp/offer-listing/B008DDCYHI/ref=dp_olp_new?ie=UTF8&condition=new	BBCA	Amazon.ca
4623512	2074421	EXACT	CONFIRMED_AUTO	1.0000	3475		2019-01-17 23:08:47		https://www.bedbathandbeyond.ca/store/product/omada-reg-adamo-domed-cake-stand-in-white/1062605939?skuId=62605939	https://www.amazon.ca/gp/offer-listing/B01D8MZ3YE/ref=dp_olp_new?ie=UTF8&condition=new	BBCA	Amazon.ca
4795505	21278756	EXACT	CONFIRMED_AUTO	1.0000	3475		2019-01-28 21:16:09		https://www.bedbathandbeyond.ca/store/product/polywood-reg-club-arm-chair/3265167?skuId=43692866	https://www.amazon.com/gp/offer-listing/B00A7KIVUY/ref=dp_olp_new_mbc?ie=UTF8&condition=new	BBCA	Amazon.com
4795505	19706121	EXACT	CONFIRMED_AUTO	1.0000	3475		2019-01-28 13:56:44		https://www.bedbathandbeyond.ca/store/product/polywood-reg-club-arm-chair/3265167?skuId=43692866	https://www.amazon.ca/gp/offer-listing/B00A7KIVUY/ref=dp_olp_new?ie=UTF8&condition=new	BBCA	Amazon.ca
5223405	5942404	EXACT	CONFIRMED_AUTO	1.0000	3475		2019-01-17 23:10:46		https://www.bedbathandbeyond.ca/store/product/momeni-zarin-hand-tufted-3-39-6-x-5-39-6-accent-rug-in-blue/5036090?skuId=76133499	https://www.amazon.ca/gp/offer-listing/B005ZRRT2A/ref=dp_olp_new_mbc?ie=UTF8&condition=new	BBCA	Amazon.ca
5225298	5805343	EXACT	CONFIRMED_AUTO	1.0000	3475		2019-01-17 23:11:02		https://www.bedbathandbeyond.ca/store/product/momeni-rio-tufted-accent-rug-in-silver/5036097?skuId=77064996	https://www.amazon.ca/gp/offer-listing/B00V6PDQU4/ref=dp_olp_new_mbc?ie=UTF8&condition=new	BBCA	Amazon.ca
5224407	5958531	EXACT	CONFIRMED_AUTO	1.0000	3475		2019-01-31 01:38:12		https://www.bedbathandbeyond.ca/store/product/momeni-persian-garden-loomed-area-rug/5025051?skuId=76546567	https://www.amazon.ca/gp/offer-listing/B003R6QYDQ/ref=dp_olp_new_mbc?ie=UTF8&condition=new	BBCA	Amazon.ca
5223278	5958730	EXACT	CONFIRMED_AUTO	1.0000	3475		2019-01-17 23:10:46		https://www.bedbathandbeyond.ca/store/product/momeni-persian-garden-power-loomed-rug-in-black/5025063?skuId=76133438	https://www.amazon.ca/gp/offer-listing/B003NYB44G/ref=dp_olp_new_mbc?ie=UTF8&condition=new	BBCA	Amazon.ca
5224307	5958665	EXACT	CONFIRMED_AUTO	1.0000	3475		2019-01-17 23:10:55		https://www.bedbathandbeyond.ca/store/product/momeni-persian-garden-rug/5025091?skuId=76546552	https://www.amazon.ca/gp/offer-listing/B003OFSJMY/ref=dp_olp_new_mbc?ie=UTF8&condition=new	BBCA	Amazon.ca
5225665	21222556	EXACT	CONFIRMED_AUTO	1.0000	3475		2019-01-28 17:06:04		https://www.bedbathandbeyond.ca/store/product/momeni-distressed-petra-rug-in-grey/5025072?skuId=77331303	https://www.amazon.ca/gp/offer-listing/B01MR52EX5/ref=dp_olp_new_mbc?ie=UTF8&condition=new	BBCA	Amazon.ca
5224774	5948540	EXACT	CONFIRMED_AUTO	1.0000	3475		2019-01-17 23:10:59		https://www.bedbathandbeyond.ca/store/product/momeni-delhi-geometric-triangle-hand-tufted-accent-rug-in-multi/5036112?skuId=76743007	https://www.amazon.ca/gp/offer-listing/B00IQVH8OG/ref=dp_olp_new_mbc?ie=UTF8&condition=new	BBCA	Amazon.ca
5222966	813879	EXACT	CONFIRMED_AUTO	1.0000	3475		2019-01-17 23:10:42		https://www.bedbathandbeyond.ca/store/product/momeni-delhi-geometric-hand-tufted-accent-rug-in-navy-white/5036107?skuId=76029999	https://www.amazon.ca/gp/offer-listing/B00CJMQ4NE/ref=dp_olp_new_mbc?ie=UTF8&condition=new	BBCA	Amazon.ca
5224116	5956142	EXACT	CONFIRMED_AUTO	1.0000	3475		2019-01-17 23:10:52		https://www.bedbathandbeyond.ca/store/product/momeni-belmont-star-rug/5031610?skuId=76387684	https://www.amazon.ca/gp/offer-listing/B004VWL8BI/ref=dp_olp_new_mbc?ie=UTF8&condition=new	BBCA	Amazon.ca
5224013	5956638	EXACT	CONFIRMED_AUTO	1.0000	3475		2019-01-17 23:10:52		https://www.bedbathandbeyond.ca/store/product/momeni-belmont-rug/5031635?skuId=76387629	https://www.amazon.ca/gp/offer-listing/B004IUTNB0/ref=dp_olp_new_mbc?ie=UTF8&condition=new	BBCA	Amazon.ca
4605807	21275289	EXACT	CONFIRMED_AUTO	1.0000	3475		2019-01-28 21:35:01		https://www.bedbathandbeyond.ca/store/product/ravensburger-thomas-friends-64-piece-puzzle-with-character-shaped-pieces/5203104?skuId=65486047	https://www.amazon.com/gp/offer-listing/B06XD2G8P1/ref=dp_olp_new_mbc?ie=UTF8&condition=new	BBCA	Amazon.com
4605807	21215753	EXACT	CONFIRMED_AUTO	1.0000	3475		2019-01-28 17:05:52		https://www.bedbathandbeyond.ca/store/product/ravensburger-thomas-friends-64-piece-puzzle-with-character-shaped-pieces/5203104?skuId=65486047	https://www.amazon.ca/gp/offer-listing/B06XD2G8P1/ref=dp_olp_new_mbc?ie=UTF8&condition=new	BBCA	Amazon.ca
4627211	21211192	EXACT	CONFIRMED_AUTO	1.0000	3475		2019-01-28 17:05:31		https://www.bedbathandbeyond.ca/store/product/ravensburger-science-x-midi-flying-objects/5052661?skuId=64496016	https://www.amazon.ca/gp/offer-listing/B01CLVLFK4/ref=dp_olp_new_mbc?ie=UTF8&condition=new	BBCA	Amazon.ca
4725312	6909537	EXACT	CONFIRMED_AUTO	1.0000	3475		2019-01-17 22:33:41		https://www.bedbathandbeyond.ca/store/product/mauviel-1830-reg-m-39-tradition-2-9-qt-copper-potato-steamer/5171160?skuId=64905174	https://www.amazon.com/gp/offer-listing/B0002L5GCY/ref=dp_olp_new_mbc?ie=UTF8&condition=new	BBCA	Amazon.com
4724279	19707375	EXACT	CONFIRMED_AUTO	1.0000	3475		2019-01-28 14:31:52		https://www.bedbathandbeyond.ca/store/product/mauviel-1830-reg-m-39-150c2-copper-and-stainless-steel-covered-saucepan/3311889?skuId=47679825	https://www.amazon.com/gp/offer-listing/B01M58FVZE/ref=dp_olp_new_mbc?ie=UTF8&condition=new	BBCA	Amazon.com
4606967	21211232	EXACT	CONFIRMED_AUTO	1.0000	3475		2019-01-28 17:05:32		https://www.bedbathandbeyond.ca/store/product/ravensburger-sanssouci/5052726?skuId=64496238	https://www.amazon.ca/gp/offer-listing/B00F1Z93KM/ref=dp_olp_new_mbc?ie=UTF8&condition=new	BBCA	Amazon.ca
4605641	21219619	EXACT	CONFIRMED_AUTO	1.0000	3475		2019-01-28 17:05:31		https://www.bedbathandbeyond.ca/store/product/ravensburger-3000-piece-antique-map-puzzle/5052834?skuId=64495842	https://www.amazon.ca/gp/offer-listing/B01MS9L5H6/ref=dp_olp_new_mbc?ie=UTF8&condition=new	BBCA	Amazon.ca
4782561	21280889	EXACT	CONFIRMED_AUTO	1.0000	3475		2019-01-28 21:24:15		https://www.bedbathandbeyond.ca/store/product/edge-of-belgravia-arondight-7-5-inch-slicing-knife/1061782631?skuId=61782631	https://www.amazon.com/gp/offer-listing/B0753JK2PW/ref=dp_olp_new_mbc?ie=UTF8&condition=new	BBCA	Amazon.com
4781663	21286046	EXACT	CONFIRMED_AUTO	1.0000	3475		2019-01-28 21:24:15		https://www.bedbathandbeyond.ca/store/product/edge-of-belgravia-arondight-7-5-inch-chef-39-s-knife/1061782617?skuId=61782617	https://www.amazon.com/gp/offer-listing/B0753J5SKN/ref=dp_olp_new_mbc?ie=UTF8&condition=new	BBCA	Amazon.com
4781663	15925257	EXACT	CONFIRMED_AUTO	1.0000	3475		2019-01-23 21:05:58		https://www.bedbathandbeyond.ca/store/product/edge-of-belgravia-arondight-7-5-inch-chef-39-s-knife/1061782617?skuId=61782617	https://www.amazon.ca/gp/offer-listing/B0753J5SKN/ref=dp_olp_new?ie=UTF8&condition=new	BBCA	Amazon.ca
4782559	21388599	EXACT	CONFIRMED_AUTO	1.0000	3475		2019-01-28 21:24:15		https://www.bedbathandbeyond.ca/store/product/edge-of-belgravia-arondight-4-inch-paring-knife/1061782563?skuId=61782563	https://www.amazon.com/gp/offer-listing/B0753DZVCP/ref=dp_olp_new_mbc?ie=UTF8&condition=new	BBCA	Amazon.com
4782559	3198597	EXACT	CONFIRMED_AUTO	1.0000	3475		2019-01-17 23:07:36		https://www.bedbathandbeyond.ca/store/product/edge-of-belgravia-arondight-4-inch-paring-knife/1061782563?skuId=61782563	https://www.amazon.ca/gp/offer-listing/B0753DZVCP/ref=dp_olp_new_mbc?ie=UTF8&condition=new	BBCA	Amazon.ca
4684196	19743111	EXACT	CONFIRMED_AUTO	1.0000	3475		2019-01-28 14:26:51		https://www.bedbathandbeyond.ca/store/product/bamix-reg-powder-disc-attachment/1042173571?skuId=42173571	https://www.amazon.com/gp/offer-listing/B004I8V8BK/ref=dp_olp_new_mbc?ie=UTF8&condition=new	BBCA	Amazon.com
4684196	19707546	EXACT	CONFIRMED_AUTO	1.0000	3475		2019-01-28 13:56:22		https://www.bedbathandbeyond.ca/store/product/bamix-reg-powder-disc-attachment/1042173571?skuId=42173571	https://www.amazon.ca/gp/offer-listing/B004I8V8BK/ref=dp_olp_new_mbc?ie=UTF8&condition=new	BBCA	Amazon.ca
4635648	21407835	EXACT	CONFIRMED_AUTO	1.0000	3475		2019-01-31 01:04:06		https://www.bedbathandbeyond.ca/store/product/ferrari-6-piece-protective-gear-set/3324609?skuId=61438217	https://www.amazon.com/gp/offer-listing/B01BT5MO7G/ref=dp_olp_new_mbc?ie=UTF8&condition=new	BBCA	Amazon.com
4635648	21211927	EXACT	CONFIRMED_AUTO	1.0000	3475		2019-01-28 17:04:19		https://www.bedbathandbeyond.ca/store/product/ferrari-6-piece-protective-gear-set/3324609?skuId=61438217	https://www.amazon.ca/gp/offer-listing/B01BT5MO7G/ref=dp_olp_new_mbc?ie=UTF8&condition=new	BBCA	Amazon.ca
4558412	21328260	EXACT	CONFIRMED_AUTO	1.0000	3475		2019-01-28 21:33:23		https://www.bedbathandbeyond.ca/store/product/ferrari-classic-retro-roller-skates/5161516?skuId=64818054	https://www.amazon.com/gp/offer-listing/B076ZK2FR1/ref=dp_olp_new_mbc?ie=UTF8&condition=new	BBCA	Amazon.com
4635606	21239298	EXACT	CONFIRMED_AUTO	1.0000	3475		2019-01-28 21:23:36		https://www.bedbathandbeyond.ca/store/product/ferrari-medium-retro-classic-helmet-in-red/1061438163?skuId=61438163	https://www.amazon.com/gp/offer-listing/B00UHIPB68/ref=dp_olp_new_mbc?ie=UTF8&condition=new	BBCA	Amazon.com
4635606	21215609	EXACT	CONFIRMED_AUTO	1.0000	3475		2019-01-28 17:04:19		https://www.bedbathandbeyond.ca/store/product/ferrari-medium-retro-classic-helmet-in-red/1061438163?skuId=61438163	https://www.amazon.ca/dp/B00UHIPB68?psc=1	BBCA	Amazon.ca
4635673	21380223	EXACT	CONFIRMED_AUTO	1.0000	3475		2019-01-28 21:23:36		https://www.bedbathandbeyond.ca/store/product/ferrari-6-piece-protective-gear-set/3324609?skuId=61438231	https://www.amazon.com/gp/offer-listing/B00VBJY9QU/ref=dp_olp_all_mbc?ie=UTF8&condition=all	BBCA	Amazon.com
4635673	21222272	EXACT	CONFIRMED_AUTO	1.0000	3475		2019-01-28 17:04:19		https://www.bedbathandbeyond.ca/store/product/ferrari-6-piece-protective-gear-set/3324609?skuId=61438231	https://www.amazon.ca/gp/offer-listing/B00VBJY9QU/ref=dp_olp_new?ie=UTF8&condition=new	BBCA	Amazon.ca
4793187	21357349	EXACT	CONFIRMED_AUTO	1.0000	3475		2019-01-28 21:29:22		https://www.bedbathandbeyond.ca/store/product/fine-decor-liana-cameo-wallpaper/5008076?skuId=63379310	https://www.amazon.com/dp/B0751H5HZ3?psc=1	BBCA	Amazon.com
4677691	6778444	EXACT	CONFIRMED_AUTO	1.0000	3475		2019-01-31 01:29:43		https://www.bedbathandbeyond.ca/store/product/hansgrohe-unica-s-wallbar/1041000571?skuId=41000571	https://www.amazon.ca/gp/offer-listing/B000HATSQA/ref=dp_olp_new_mbc?ie=UTF8&condition=new	BBCA	Amazon.ca
4677691	5908129	EXACT	CONFIRMED_AUTO	1.0000	3475		2019-01-30 03:33:03		https://www.bedbathandbeyond.ca/store/product/hansgrohe-unica-s-wallbar/1041000571?skuId=41000571	https://www.lowes.com/pd/Hansgrohe-Polished-Chrome-Slide-Bar/3799539	BBCA	Lowes
4677691	21771092	EXACT	CONFIRMED_AUTO	1.0000	3475		2019-01-29 16:29:08		https://www.bedbathandbeyond.ca/store/product/hansgrohe-unica-s-wallbar/1041000571?skuId=41000571	https://www.homedepot.com/p/Hansgrohe-Unica-S-24-in-Wall-Bar-in-Brushed-Nickel-28632820/203143268	BBCA	HomeDepot
4725537	21274652	EXACT	CONFIRMED_AUTO	1.0000	3475		2019-01-28 21:14:38		https://www.bedbathandbeyond.ca/store/product/ruffoni-symphonia-prima-stainless-steel-covered-sauce-pan/3259178?skuId=42559511	https://www.amazon.com/gp/offer-listing/B00O5I4GXU/ref=dp_olp_new_mbc?ie=UTF8&condition=new	BBCA	Amazon.com
4725572	21260868	EXACT	CONFIRMED_AUTO	1.0000	3475		2019-01-28 21:15:45		https://www.bedbathandbeyond.ca/store/product/ruffoni-symphonia-mini-prima-0-65-quart-covered-mini-casserole/1043398584?skuId=43398584	https://www.amazon.com/dp/B0175T5A9O?psc=1	BBCA	Amazon.com
4725572	21219516	EXACT	CONFIRMED_AUTO	1.0000	3475		2019-01-28 17:03:00		https://www.bedbathandbeyond.ca/store/product/ruffoni-symphonia-mini-prima-0-65-quart-covered-mini-casserole/1043398584?skuId=43398584	https://www.amazon.ca/dp/B0175T5A9O?psc=1	BBCA	Amazon.ca
4723998	21268370	EXACT	CONFIRMED_AUTO	1.0000	3475		2019-01-28 21:15:45		https://www.bedbathandbeyond.ca/store/product/ruffoni-symphonia-mini-cupra-0-28-quart-low-saucepan/1043398652?skuId=43398652	https://www.amazon.com/dp/B015FZL0F8?psc=1	BBCA	Amazon.com
4756447	21277434	EXACT	CONFIRMED_AUTO	1.0000	3475		2019-01-28 21:23:39		https://www.bedbathandbeyond.ca/store/product/hailo-trade-pure-step-waste-bin/3328743?skuId=61462915	https://www.amazon.com/gp/offer-listing/B01MRKDHV5/ref=dp_olp_new_mbc?ie=UTF8&condition=new	BBCA	Amazon.com
4597790	21400825	EXACT	CONFIRMED_AUTO	1.0000	3475		2019-01-31 01:04:09		https://www.bedbathandbeyond.ca/store/product/hailo-trade-kitchenline-deluxe-storage-container/3328293?skuId=61462809	https://www.amazon.com/dp/B01ELIBT1A?psc=1	BBCA	Amazon.com
4597790	21222683	EXACT	CONFIRMED_AUTO	1.0000	3475		2019-01-28 17:04:20		https://www.bedbathandbeyond.ca/store/product/hailo-trade-kitchenline-deluxe-storage-container/3328293?skuId=61462809	https://www.amazon.ca/gp/offer-listing/B01ELIBT1A/ref=dp_olp_new_mbc?ie=UTF8&condition=new	BBCA	Amazon.ca
4756379	21224721	EXACT	CONFIRMED_AUTO	1.0000	3475		2019-01-28 17:03:18		https://www.bedbathandbeyond.ca/store/product/hailo-trade-big-box-stainless-steel-rectangular-80-liter-swing-trash-can/1045667763?skuId=45667763	https://www.amazon.ca/gp/offer-listing/B00J590PAW/ref=dp_olp_new_mbc?ie=UTF8&condition=new	BBCA	Amazon.ca
4756379	12347398	EXACT	CONFIRMED_AUTO	1.0000	3475		2019-01-17 22:12:23		https://www.bedbathandbeyond.ca/store/product/hailo-trade-big-box-stainless-steel-rectangular-80-liter-swing-trash-can/1045667763?skuId=45667763	https://www.amazon.com/gp/offer-listing/B00J590PAW/ref=dp_olp_all_mbc?ie=UTF8&condition=all	BBCA	Amazon.com
4756488	19749830	EXACT	CONFIRMED_AUTO	1.0000	3475		2019-01-28 13:58:13		https://www.bedbathandbeyond.ca/store/product/hailo-trade-big-box-rectangular-60-liter-swing-trash-can/3307544?skuId=47545779	https://www.amazon.ca/gp/offer-listing/B00PAR0PX0/ref=dp_olp_new?ie=UTF8&condition=new	BBCA	Amazon.ca
4756488	12350793	EXACT	CONFIRMED_AUTO	1.0000	3475		2019-01-17 22:17:22		https://www.bedbathandbeyond.ca/store/product/hailo-trade-big-box-rectangular-60-liter-swing-trash-can/3307544?skuId=47545779	https://www.amazon.com/gp/offer-listing/B00PAR0PX0/ref=dp_olp_used_mbc?ie=UTF8&condition=used	BBCA	Amazon.com
4999958	21379448	EXACT	CONFIRMED_AUTO	1.0000	3475		2019-01-28 21:16:05		https://www.bedbathandbeyond.ca/store/product/philippe-deshoulieres-arcades-soup-bowl-in-grey/1043650866?skuId=43650866	https://www.amazon.com/dp/B00GMPKJZS?psc=1	BBCA	Amazon.com
4664263	5361687	EXACT	CONFIRMED_AUTO	1.0000	3475		2019-01-17 23:09:16		https://www.bedbathandbeyond.ca/store/product/french-bull-reg-ziggy-insulated-shopper-tote-bag/5012116?skuId=63472561	https://www.amazon.ca/gp/offer-listing/B074PFTPM9/ref=dp_olp_new_mbc?ie=UTF8&condition=new	BBCA	Amazon.ca
4664263	8621846	EXACT	CONFIRMED_AUTO	1.0000	3475		2019-01-17 22:29:51		https://www.bedbathandbeyond.ca/store/product/french-bull-reg-ziggy-insulated-shopper-tote-bag/5012116?skuId=63472561	https://www.amazon.com/gp/offer-listing/B074PFTPM9/ref=dp_olp_new_mbc?ie=UTF8&condition=new	BBCA	Amazon.com
4757456	19751939	EXACT	CONFIRMED_AUTO	1.0000	3475		2019-01-28 13:58:38		https://www.bedbathandbeyond.ca/store/product/go-travel-dual-washbag-in-black/1060471208?skuId=60471208	https://www.amazon.ca/gp/offer-listing/B01G8II36U/ref=dp_olp_new_mbc?ie=UTF8&condition=new	BBCA	Amazon.ca
4757456	17983410	EXACT	CONFIRMED_AUTO	1.0000	3475		2019-01-24 14:48:45		https://www.bedbathandbeyond.ca/store/product/go-travel-dual-washbag-in-black/1060471208?skuId=60471208	https://www.amazon.com/gp/offer-listing/B01G8II36U/ref=dp_olp_new_mbc?ie=UTF8&condition=new	BBCA	Amazon.com
4781913	21403314	EXACT	CONFIRMED_AUTO	1.0000	3475		2019-01-31 00:50:16		https://www.bedbathandbeyond.ca/store/product/shun-premier-5-inch-steak-knife/1042716136?skuId=42716136	https://www.amazon.com/gp/offer-listing/B004L6YH5S/ref=dp_olp_all_mbc?ie=UTF8&condition=all	BBCA	Amazon.com
4781913	1286686	EXACT	CONFIRMED_AUTO	1.0000	3475		2019-01-17 23:01:42		https://www.bedbathandbeyond.ca/store/product/shun-premier-5-inch-steak-knife/1042716136?skuId=42716136	https://www.amazon.ca/gp/offer-listing/B004L6YH5S/ref=dp_olp_new_mbc?ie=UTF8&condition=new	BBCA	Amazon.ca
4781918	21317916	EXACT	CONFIRMED_AUTO	1.0000	3475		2019-01-28 21:14:51		https://www.bedbathandbeyond.ca/store/product/shun-classic-8-inch-western-cook-39-s-knife/1042718338?skuId=42718338	https://www.amazon.com/gp/offer-listing/B004M3ZF2Y/ref=dp_olp_new_mbc?ie=UTF8&condition=new	BBCA	Amazon.com
4781918	6211755	EXACT	CONFIRMED_AUTO	1.0000	3475		2019-01-17 23:01:43		https://www.bedbathandbeyond.ca/store/product/shun-classic-8-inch-western-cook-39-s-knife/1042718338?skuId=42718338	https://www.amazon.ca/gp/offer-listing/B004M3ZF2Y/ref=dp_olp_new_mbc?ie=UTF8&condition=new	BBCA	Amazon.ca
4781784	21386837	EXACT	CONFIRMED_AUTO	1.0000	3475		2019-01-28 21:11:13		https://www.bedbathandbeyond.ca/store/product/shun-classic-11-slot-bamboo-block/1013659478?skuId=13659478	https://www.amazon.com/gp/offer-listing/B00022YELM/ref=dp_olp_all_mbc?ie=UTF8&condition=all	BBCA	Amazon.com
4781784	5322856	EXACT	CONFIRMED_AUTO	1.0000	3475		2019-01-17 22:59:26		https://www.bedbathandbeyond.ca/store/product/shun-classic-11-slot-bamboo-block/1013659478?skuId=13659478	https://www.amazon.ca/gp/offer-listing/B00022YELM/ref=dp_olp_new_mbc?ie=UTF8&condition=new	BBCA	Amazon.ca
4724006	829419	EXACT	CONFIRMED_AUTO	1.0000	3475		2019-01-17 23:02:12		https://www.bedbathandbeyond.ca/store/product/valira-aire-induction-fry-pan/3263571?skuId=43561117	https://www.amazon.ca/gp/offer-listing/B007NDGLMS/ref=dp_olp_new_mbc?ie=UTF8&condition=new	BBCA	Amazon.ca
4724006	6394427	EXACT	CONFIRMED_AUTO	1.0000	3475		2019-01-17 21:44:49		https://www.bedbathandbeyond.ca/store/product/valira-aire-induction-fry-pan/3263571?skuId=43561117	https://www.amazon.com/gp/offer-listing/B007NDGLMS/ref=dp_olp_new_mbc?ie=UTF8&condition=new	BBCA	Amazon.com
4785743	21388262	EXACT	CONFIRMED_AUTO	1.0000	3475		2019-01-28 21:28:41		https://www.bedbathandbeyond.ca/store/product/kosta-boda-red-rim-brains-footed-vase-in-white/1063193626?skuId=63193626	https://www.amazon.com/gp/offer-listing/B0161KAPFW/ref=dp_olp_new_mbc?ie=UTF8&condition=new	BBCA	Amazon.com
4786432	18240606	EXACT	CONFIRMED_AUTO	1.0000	3475		2019-01-24 14:45:06		https://www.bedbathandbeyond.ca/store/product/kosta-boda-organix-bowl/3294787?skuId=46683052	https://www.amazon.com/gp/offer-listing/B0161KAKSY/ref=dp_olp_new_mbc?ie=UTF8&condition=new	BBCA	Amazon.com
4885749	21369311	EXACT	CONFIRMED_AUTO	1.0000	3475		2019-01-28 21:23:10		https://www.bedbathandbeyond.ca/store/product/kosta-boda-bruk-tumblers/3321114?skuId=61261549	https://www.amazon.com/gp/offer-listing/B01KD6JLOQ/ref=dp_olp_new_mbc?ie=UTF8&condition=new	BBCA	Amazon.com
4885749	21211390	EXACT	CONFIRMED_AUTO	1.0000	3475		2019-01-28 17:04:10		https://www.bedbathandbeyond.ca/store/product/kosta-boda-bruk-tumblers/3321114?skuId=61261549	https://www.amazon.ca/dp/B01KD6JLOQ?psc=1	BBCA	Amazon.ca
4786146	21242261	EXACT	CONFIRMED_AUTO	1.0000	3475		2019-01-28 21:28:40		https://www.bedbathandbeyond.ca/store/product/kosta-boda-bj-rk-vase/3346551?skuId=63193336	https://www.amazon.com/gp/offer-listing/B074QJ9V3H/ref=dp_olp_new_mbc?ie=UTF8&condition=new	BBCA	Amazon.com
4885935	21260617	EXACT	CONFIRMED_AUTO	1.0000	3475		2019-01-28 21:28:40		https://www.bedbathandbeyond.ca/store/product/kosta-boda-all-about-you-tumblers-in-love-you-pink-set-of-2/1063193152?skuId=63193152	https://www.amazon.com/gp/offer-listing/B014UON0E4/ref=dp_olp_new_mbc?ie=UTF8&condition=new	BBCA	Amazon.com
4885935	117285	EXACT	CONFIRMED_AUTO	1.0000	3475		2019-01-17 23:09:06		https://www.bedbathandbeyond.ca/store/product/kosta-boda-all-about-you-tumblers-in-love-you-pink-set-of-2/1063193152?skuId=63193152	https://www.amazon.ca/gp/offer-listing/B014UON0E4/ref=dp_olp_new_mbc?ie=UTF8&condition=new	BBCA	Amazon.ca
4846861	19750540	EXACT	CONFIRMED_AUTO	1.0000	3475		2019-01-28 13:58:51		https://www.bedbathandbeyond.ca/store/product/cariloha-reg-resort-sateen-viscose-made-from-bamboo-sheet-set/3314992?skuId=60702623	https://www.amazon.ca/gp/offer-listing/B077722PHS/ref=dp_olp_new_mbc?ie=UTF8&condition=new	BBCA	Amazon.ca
4846861	18672059	EXACT	CONFIRMED_AUTO	1.0000	3475		2019-01-25 15:33:42		https://www.bedbathandbeyond.ca/store/product/cariloha-reg-resort-sateen-viscose-made-from-bamboo-sheet-set/3314992?skuId=60702623	https://www.amazon.com/gp/offer-listing/B077722PHS/ref=dp_olp_new_mbc?ie=UTF8&condition=new	BBCA	Amazon.com
4692413	21317933	EXACT	CONFIRMED_AUTO	1.0000	3475		2019-01-28 21:23:38		https://www.bedbathandbeyond.ca/store/product/halo-trade-l50-step-ladder-in-silver/3325054?skuId=61455597	https://www.amazon.com/gp/offer-listing/B00WECML5O/ref=dp_olp_new_mbc?ie=UTF8&condition=new	BBCA	Amazon.com
4781581	21285068	EXACT	CONFIRMED_AUTO	1.0000	3475		2019-01-28 21:20:41		https://www.bedbathandbeyond.ca/store/product/laguiole-jean-dubost-12-piece-flatware-set-in-pastel/1046630988?skuId=46630988	https://www.amazon.com/gp/offer-listing/B00IJHASZ8/ref=dp_olp_new_mbc?ie=UTF8&condition=new	BBCA	Amazon.com
4781581	21221165	EXACT	CONFIRMED_AUTO	1.0000	3475		2019-01-28 17:03:32		https://www.bedbathandbeyond.ca/store/product/laguiole-jean-dubost-12-piece-flatware-set-in-pastel/1046630988?skuId=46630988	https://www.amazon.ca/gp/offer-listing/B00IJHASZ8/ref=dp_olp_new?ie=UTF8&condition=new	BBCA	Amazon.ca
4782757	21283470	EXACT	CONFIRMED_AUTO	1.0000	3475		2019-01-28 21:13:08		https://www.bedbathandbeyond.ca/store/product/laguiole-6-piece-steak-knife-set-with-olive-wood-handles-and-wood-claps-storage-box/1040740034?skuId=40740034	https://www.amazon.com/gp/offer-listing/B002BU48RS/ref=dp_olp_new_mbc?ie=UTF8&condition=new	BBCA	Amazon.com
4782757	240450	EXACT	CONFIRMED_AUTO	1.0000	3475		2019-01-17 23:00:45		https://www.bedbathandbeyond.ca/store/product/laguiole-6-piece-steak-knife-set-with-olive-wood-handles-and-wood-claps-storage-box/1040740034?skuId=40740034	https://www.amazon.ca/gp/offer-listing/B002BU48RS/ref=dp_olp_new_mbc?ie=UTF8&condition=new	BBCA	Amazon.ca
4801340	399468	EXACT	CONFIRMED_AUTO	1.0000	3475		2019-01-17 23:10:31		https://www.bedbathandbeyond.ca/store/product/braun-reg-brewsense-touch-screen-12-cup-coffee-maker-in-stainless-steel/5225122?skuId=65898468	https://www.amazon.ca/gp/offer-listing/B07FSPSLL8/ref=dp_olp_all_mbc?ie=UTF8&condition=all	BBCA	Amazon.ca
4801234	11372836	EXACT	CONFIRMED_AUTO	0.9340			2019-01-31 17:42:20		https://www.bedbathandbeyond.ca/store/product/braun-brewsense-kf7000bk-12-cup-drip-coffee-maker-with-pureflavor-brewing-system/3293364?skuId=46559388	https://www.kohls.com/product/prd-3520749/braun-brewsense-12-cup-drip-coffee-maker.jsp?skuId=65710199	BBCA	Kohls
4801234	21602333	EXACT	CONFIRMED_AUTO	1.0000	3475		2019-01-29 16:30:39		https://www.bedbathandbeyond.ca/store/product/braun-brewsense-kf7000bk-12-cup-drip-coffee-maker-with-pureflavor-brewing-system/3293364?skuId=46559388	https://www.homedepot.com/p/Braun-BrewSense-12-Cup-Drip-Coffee-Maker-in-Black-KF7000BK/302351322	BBCA	HomeDepot
4801234	399438	EXACT	CONFIRMED_AUTO	1.0000	3475		2019-01-17 23:04:32		https://www.bedbathandbeyond.ca/store/product/braun-brewsense-kf7000bk-12-cup-drip-coffee-maker-with-pureflavor-brewing-system/3293364?skuId=46559388	https://www.amazon.ca/gp/offer-listing/B01EA5ZKX2/ref=dp_olp_new_mbc?ie=UTF8&condition=new	BBCA	Amazon.ca
4801234	8777025	EXACT	CONFIRMED_AUTO	1.0000	3475		2019-01-17 22:14:39		https://www.bedbathandbeyond.ca/store/product/braun-brewsense-kf7000bk-12-cup-drip-coffee-maker-with-pureflavor-brewing-system/3293364?skuId=46559388	https://www.amazon.com/gp/offer-listing/B01EA5ZKX2/ref=dp_olp_all_mbc?ie=UTF8&condition=all	BBCA	Amazon.com
4753927	5830736	EXACT	CONFIRMED_AUTO	1.0000	3475		2019-01-30 03:33:34		https://www.bedbathandbeyond.ca/store/product/bosmere-fountain-cover/3293703?skuId=46728449	https://www.lowes.com/pd/Bosmere-Green-Polyester-Fountain-Cover/4720129	BBCA	Lowes
